[2023-08-06 09:20:29] INFO:  Se comienza a trabajar con el mes 201911
[2023-08-06 09:25:46] INFO:  Se copió con éxito 201911_RadarAMVA_HztlReflectivity.rar con tamaño 1642205.725
[2023-08-06 09:28:17] INFO:  Se realizó el Unzip de 201911
[2023-08-06 09:28:17] INFO:  Se está iterando el día 2019-11-01
[2023-08-06 09:29:50] INFO:  Se está iterando el día 2019-11-02
[2023-08-06 09:31:34] INFO:  Se está iterando el día 2019-11-03
[2023-08-06 09:33:16] INFO:  Se está iterando el día 2019-11-04
[2023-08-06 09:35:09] INFO:  Se está iterando el día 2019-11-05
[2023-08-06 09:36:52] INFO:  Se está iterando el día 2019-11-06
[2023-08-06 09:38:33] INFO:  Se está iterando el día 2019-11-07
[2023-08-06 09:40:17] INFO:  Se está iterando el día 2019-11-08
[2023-08-06 09:41:55] INFO:  Se está iterando el día 2019-11-09
[2023-08-06 09:43:35] INFO:  Se está iterando el día 2019-11-10
[2023-08-06 09:45:05] INFO:  Se está iterando el día 2019-11-11
[2023-08-06 09:46:51] INFO:  Se está iterando el día 2019-11-12
[2023-08-06 09:48:36] INFO:  Se está iterando el día 2019-11-13
[2023-08-06 09:50:13] INFO:  Se está iterando el día 2019-11-14
[2023-08-06 09:51:55] INFO:  Se está iterando el día 2019-11-15
[2023-08-06 09:53:37] INFO:  Se está iterando el día 2019-11-16
[2023-08-06 09:54:48] INFO:  Se está iterando el día 2019-11-17
[2023-08-06 09:56:27] INFO:  Se está iterando el día 2019-11-18
[2023-08-06 09:58:03] INFO:  Se está iterando el día 2019-11-19
[2023-08-06 09:59:48] INFO:  Se está iterando el día 2019-11-20
[2023-08-06 10:01:16] INFO:  Se está iterando el día 2019-11-21
[2023-08-06 10:02:51] INFO:  Se está iterando el día 2019-11-22
[2023-08-06 10:04:23] INFO:  Se está iterando el día 2019-11-23
[2023-08-06 10:05:58] INFO:  Se está iterando el día 2019-11-24
[2023-08-06 10:07:22] INFO:  Se está iterando el día 2019-11-25
[2023-08-06 10:08:45] INFO:  Se está iterando el día 2019-11-26
[2023-08-06 10:10:13] INFO:  Se está iterando el día 2019-11-27
[2023-08-06 10:11:41] INFO:  Se está iterando el día 2019-11-28
[2023-08-06 10:13:15] INFO:  Se está iterando el día 2019-11-29
[2023-08-06 10:14:51] INFO:  Se está iterando el día 2019-11-30
[2023-08-06 10:16:45] INFO:  Se borró con éxito 201911_RadarAMVA_HztlReflectivity
[2023-08-06 10:16:45] INFO:  Se comienza a trabajar con el mes 201912
[2023-08-06 10:30:25] INFO:  Se copió con éxito 201912_RadarAMVA_HztlReflectivity.rar con tamaño 1310196.195
[2023-08-06 10:32:52] INFO:  Se realizó el Unzip de 201912
[2023-08-06 10:32:52] INFO:  Se está iterando el día 2019-12-01
[2023-08-06 10:34:14] INFO:  Se está iterando el día 2019-12-02
[2023-08-06 10:35:39] INFO:  Se está iterando el día 2019-12-03
[2023-08-06 10:37:11] INFO:  Se está iterando el día 2019-12-04
[2023-08-06 10:38:35] INFO:  Se está iterando el día 2019-12-05
[2023-08-06 10:40:05] INFO:  Se está iterando el día 2019-12-06
[2023-08-06 10:41:32] INFO:  Se está iterando el día 2019-12-07
[2023-08-06 10:43:09] INFO:  Se está iterando el día 2019-12-08
[2023-08-06 10:44:35] INFO:  Se está iterando el día 2019-12-09
[2023-08-06 10:45:57] INFO:  Se está iterando el día 2019-12-10
[2023-08-06 10:47:25] INFO:  Se está iterando el día 2019-12-11
[2023-08-06 10:48:55] INFO:  Se está iterando el día 2019-12-12
[2023-08-06 10:50:19] INFO:  Se está iterando el día 2019-12-13
[2023-08-06 10:51:48] INFO:  Se está iterando el día 2019-12-14
[2023-08-06 10:53:21] INFO:  Se está iterando el día 2019-12-15
[2023-08-06 10:54:50] INFO:  Se está iterando el día 2019-12-16
[2023-08-06 10:56:20] INFO:  Se está iterando el día 2019-12-17
[2023-08-06 10:57:55] INFO:  Se está iterando el día 2019-12-18
[2023-08-06 10:59:23] INFO:  Se está iterando el día 2019-12-19
[2023-08-06 11:00:44] INFO:  Se está iterando el día 2019-12-20
[2023-08-06 11:02:13] INFO:  Se está iterando el día 2019-12-21
[2023-08-06 11:03:25] INFO:  Se está iterando el día 2019-12-22
[2023-08-06 11:04:43] INFO:  Se está iterando el día 2019-12-23
[2023-08-06 11:06:24] INFO:  Se está iterando el día 2019-12-24
[2023-08-06 11:07:49] INFO:  Se está iterando el día 2019-12-25
[2023-08-06 11:09:25] INFO:  Se está iterando el día 2019-12-26
[2023-08-06 11:10:57] INFO:  Se está iterando el día 2019-12-27
[2023-08-06 11:12:28] INFO:  Se está iterando el día 2019-12-28
[2023-08-06 11:13:54] INFO:  Se está iterando el día 2019-12-29
[2023-08-06 11:15:27] INFO:  Se está iterando el día 2019-12-30
[2023-08-06 11:17:08] INFO:  Se está iterando el día 2019-12-31
[2023-08-06 11:19:02] INFO:  Se borró con éxito 201912_RadarAMVA_HztlReflectivity
