,Dptos
0,ANTIOQUIA
1,ATLANTICO
2,SANTAFE DE BOGOTA D.C
3,BOLIVAR
4,BOYACA
5,CALDAS
6,CAQUETA
7,CAUCA
8,CESAR
9,CORDOBA
10,CUNDINAMARCA
11,CHOCO
12,HUILA
13,LA GUAJIRA
14,MAGDALENA
15,META
16,NARIÃ‘O
17,NORTE DE SANTANDER
18,QUINDIO
19,RISARALDA
20,SANTANDER
21,SUCRE
22,TOLIMA
23,VALLE DEL CAUCA
24,ARAUCA
25,CASANARE
26,PUTUMAYO
27,AMAZONAS
28,GUAINIA
29,GUAVIARE
30,VAUPES
31,VICHADA
32,ARCHIPIELAGO DE SAN ANDRES PROVIDENCIA Y SANTA CATALINA
