[2023-08-04 19:44:23] INFO:  Se comienza a trabajar con el mes 202001
[2023-08-04 19:47:21] INFO:  Se copió con éxito 202001_RadarAMVA_HztlReflectivity.rar con tamaño 889225.42
[2023-08-04 19:48:44] INFO:  Se realizó el Unzip de 202001
[2023-08-04 19:48:44] INFO:  Se está iterando el día 2020-01-01
[2023-08-04 19:50:08] INFO:  Se está iterando el día 2020-01-02
[2023-08-04 19:51:20] INFO:  Se está iterando el día 2020-01-03
[2023-08-04 19:52:26] INFO:  Se está iterando el día 2020-01-04
[2023-08-04 19:53:40] INFO:  Se está iterando el día 2020-01-05
[2023-08-04 19:54:47] INFO:  Se está iterando el día 2020-01-06
[2023-08-04 19:55:56] INFO:  Se está iterando el día 2020-01-07
[2023-08-04 19:57:01] INFO:  Se está iterando el día 2020-01-08
[2023-08-04 19:58:12] INFO:  Se está iterando el día 2020-01-09
[2023-08-04 19:59:16] INFO:  Se está iterando el día 2020-01-10
[2023-08-04 20:00:26] INFO:  Se está iterando el día 2020-01-11
[2023-08-04 20:01:35] INFO:  Se está iterando el día 2020-01-12
[2023-08-04 20:02:42] INFO:  Se está iterando el día 2020-01-13
[2023-08-04 20:03:52] INFO:  Se está iterando el día 2020-01-14
[2023-08-04 20:05:07] INFO:  Se está iterando el día 2020-01-15
[2023-08-04 20:06:18] INFO:  Se está iterando el día 2020-01-16
[2023-08-04 20:07:25] INFO:  Se está iterando el día 2020-01-17
[2023-08-04 20:08:36] INFO:  Se está iterando el día 2020-01-18
[2023-08-04 20:09:45] INFO:  Se está iterando el día 2020-01-19
[2023-08-04 20:10:55] INFO:  Se está iterando el día 2020-01-20
[2023-08-04 20:12:20] INFO:  Se está iterando el día 2020-01-21
[2023-08-04 20:13:43] INFO:  Se está iterando el día 2020-01-22
[2023-08-04 20:15:19] INFO:  Se está iterando el día 2020-01-23
[2023-08-04 20:16:37] INFO:  Se está iterando el día 2020-01-24
[2023-08-04 20:17:59] INFO:  Se está iterando el día 2020-01-25
[2023-08-04 20:19:14] INFO:  Se está iterando el día 2020-01-26
[2023-08-04 20:20:32] INFO:  Se está iterando el día 2020-01-27
[2023-08-04 20:21:59] INFO:  Se está iterando el día 2020-01-28
[2023-08-04 20:23:20] INFO:  Se está iterando el día 2020-01-29
[2023-08-04 20:24:35] INFO:  Se está iterando el día 2020-01-30
[2023-08-04 20:25:46] INFO:  Se está iterando el día 2020-01-31
[2023-08-04 20:27:07] INFO:  Se borró con éxito 202001_RadarAMVA_HztlReflectivity
[2023-08-04 20:27:07] INFO:  Se comienza a trabajar con el mes 202002
[2023-08-04 20:42:28] INFO:  Se copió con éxito 202002_RadarAMVA_HztlReflectivity.rar con tamaño 886367.699
[2023-08-04 20:43:38] INFO:  Se realizó el Unzip de 202002
[2023-08-04 20:43:38] INFO:  Se está iterando el día 2020-02-01
[2023-08-04 20:44:51] INFO:  Se está iterando el día 2020-02-02
[2023-08-04 20:46:15] INFO:  Se está iterando el día 2020-02-03
[2023-08-04 20:47:24] INFO:  Se está iterando el día 2020-02-04
[2023-08-04 20:48:37] INFO:  Se está iterando el día 2020-02-05
[2023-08-04 20:49:47] INFO:  Se está iterando el día 2020-02-06
[2023-08-04 20:50:56] INFO:  Se está iterando el día 2020-02-07
[2023-08-04 20:52:11] INFO:  Se está iterando el día 2020-02-08
[2023-08-04 20:53:26] INFO:  Se está iterando el día 2020-02-09
[2023-08-04 20:54:35] INFO:  Se está iterando el día 2020-02-10
[2023-08-04 20:55:42] INFO:  Se está iterando el día 2020-02-11
[2023-08-04 20:56:47] INFO:  Se está iterando el día 2020-02-12
[2023-08-04 20:57:54] INFO:  Se está iterando el día 2020-02-13
[2023-08-04 20:59:06] INFO:  Se está iterando el día 2020-02-14
[2023-08-04 21:00:25] INFO:  Se está iterando el día 2020-02-15
[2023-08-04 21:01:43] INFO:  Se está iterando el día 2020-02-16
[2023-08-04 21:02:55] INFO:  Se está iterando el día 2020-02-17
[2023-08-04 21:04:14] INFO:  Se está iterando el día 2020-02-18
[2023-08-04 21:05:25] INFO:  Se está iterando el día 2020-02-19
[2023-08-04 21:06:36] INFO:  Se está iterando el día 2020-02-20
[2023-08-04 21:07:57] INFO:  Se está iterando el día 2020-02-21
[2023-08-04 21:09:17] INFO:  Se está iterando el día 2020-02-22
[2023-08-04 21:10:43] INFO:  Se está iterando el día 2020-02-23
[2023-08-04 21:12:01] INFO:  Se está iterando el día 2020-02-24
[2023-08-04 21:13:15] INFO:  Se está iterando el día 2020-02-25
[2023-08-04 21:14:34] INFO:  Se está iterando el día 2020-02-26
[2023-08-04 21:16:02] INFO:  Se está iterando el día 2020-02-27
[2023-08-04 21:17:22] INFO:  Se está iterando el día 2020-02-28
[2023-08-04 21:18:37] INFO:  Se está iterando el día 2020-02-29
[2023-08-04 21:19:57] INFO:  Se borró con éxito 202002_RadarAMVA_HztlReflectivity
[2023-08-04 21:19:57] INFO:  Se comienza a trabajar con el mes 202003
[2023-08-04 21:31:22] INFO:  Se copió con éxito 202003_RadarAMVA_HztlReflectivity.rar con tamaño 1155086.254
[2023-08-04 21:32:37] INFO:  Se realizó el Unzip de 202003
[2023-08-04 21:32:37] INFO:  Se está iterando el día 2020-03-01
[2023-08-04 21:34:00] INFO:  Se está iterando el día 2020-03-02
[2023-08-04 21:35:28] INFO:  Se está iterando el día 2020-03-03
[2023-08-04 21:36:47] INFO:  Se está iterando el día 2020-03-04
[2023-08-04 21:38:05] INFO:  Se está iterando el día 2020-03-05
[2023-08-04 21:39:15] INFO:  Se está iterando el día 2020-03-06
[2023-08-04 21:40:34] INFO:  Se está iterando el día 2020-03-07
[2023-08-04 21:41:55] INFO:  Se está iterando el día 2020-03-08
[2023-08-04 21:43:11] INFO:  Se está iterando el día 2020-03-09
[2023-08-04 21:44:27] INFO:  Se está iterando el día 2020-03-10
[2023-08-04 21:45:48] INFO:  Se está iterando el día 2020-03-11
[2023-08-04 21:47:08] INFO:  Se está iterando el día 2020-03-12
[2023-08-04 21:48:29] INFO:  Se está iterando el día 2020-03-13
[2023-08-04 21:49:51] INFO:  Se está iterando el día 2020-03-14
[2023-08-04 21:51:11] INFO:  Se está iterando el día 2020-03-15
[2023-08-04 21:52:29] INFO:  Se está iterando el día 2020-03-16
[2023-08-04 21:53:47] INFO:  Se está iterando el día 2020-03-17
[2023-08-04 21:55:05] INFO:  Se está iterando el día 2020-03-18
[2023-08-04 21:56:25] INFO:  Se está iterando el día 2020-03-19
[2023-08-04 21:57:45] INFO:  Se está iterando el día 2020-03-20
[2023-08-04 21:59:12] INFO:  Se está iterando el día 2020-03-21
[2023-08-04 22:00:33] INFO:  Se está iterando el día 2020-03-22
[2023-08-04 22:01:51] INFO:  Se está iterando el día 2020-03-23
[2023-08-04 22:03:08] INFO:  Se está iterando el día 2020-03-24
[2023-08-04 22:04:28] INFO:  Se está iterando el día 2020-03-25
[2023-08-04 22:05:39] INFO:  Se está iterando el día 2020-03-26
[2023-08-04 22:06:59] INFO:  Se está iterando el día 2020-03-27
[2023-08-04 22:08:10] INFO:  Se está iterando el día 2020-03-28
[2023-08-04 22:09:26] INFO:  Se está iterando el día 2020-03-29
[2023-08-04 22:10:52] INFO:  Se está iterando el día 2020-03-30
[2023-08-04 22:12:19] INFO:  Se está iterando el día 2020-03-31
[2023-08-04 22:13:56] INFO:  Se borró con éxito 202003_RadarAMVA_HztlReflectivity
[2023-08-04 22:13:56] INFO:  Se comienza a trabajar con el mes 202004
[2023-08-04 22:32:10] INFO:  Se copió con éxito 202004_RadarAMVA_HztlReflectivity.rar con tamaño 1747779.705
[2023-08-04 22:33:34] INFO:  Se realizó el Unzip de 202004
[2023-08-04 22:33:34] INFO:  Se está iterando el día 2020-04-01
[2023-08-04 22:34:57] INFO:  Se está iterando el día 2020-04-02
[2023-08-04 22:36:06] INFO:  Se está iterando el día 2020-04-03
[2023-08-04 22:37:26] INFO:  Se está iterando el día 2020-04-04
[2023-08-04 22:38:48] INFO:  Se está iterando el día 2020-04-05
[2023-08-04 22:40:11] INFO:  Se está iterando el día 2020-04-06
[2023-08-04 22:41:30] INFO:  Se está iterando el día 2020-04-07
[2023-08-04 22:42:49] INFO:  Se está iterando el día 2020-04-08
[2023-08-04 22:44:11] INFO:  Se está iterando el día 2020-04-09
[2023-08-04 22:45:32] INFO:  Se está iterando el día 2020-04-10
[2023-08-04 22:46:58] INFO:  Se está iterando el día 2020-04-11
[2023-08-04 22:48:24] INFO:  Se está iterando el día 2020-04-12
[2023-08-04 22:49:52] INFO:  Se está iterando el día 2020-04-13
[2023-08-04 22:51:16] INFO:  Se está iterando el día 2020-04-14
[2023-08-04 22:52:41] INFO:  Se está iterando el día 2020-04-15
[2023-08-04 22:54:01] INFO:  Se está iterando el día 2020-04-16
[2023-08-04 22:55:20] INFO:  Se está iterando el día 2020-04-17
[2023-08-04 22:56:38] INFO:  Se está iterando el día 2020-04-18
[2023-08-04 22:57:59] INFO:  Se está iterando el día 2020-04-19
[2023-08-04 22:59:19] INFO:  Se está iterando el día 2020-04-20
[2023-08-04 23:00:41] INFO:  Se está iterando el día 2020-04-21
[2023-08-04 23:02:07] INFO:  Se está iterando el día 2020-04-22
[2023-08-04 23:03:23] INFO:  Se está iterando el día 2020-04-23
[2023-08-04 23:04:45] INFO:  Se está iterando el día 2020-04-24
[2023-08-04 23:06:16] INFO:  Se está iterando el día 2020-04-25
[2023-08-04 23:07:34] INFO:  Se está iterando el día 2020-04-26
[2023-08-04 23:08:57] INFO:  Se está iterando el día 2020-04-27
[2023-08-04 23:10:09] INFO:  Se está iterando el día 2020-04-28
[2023-08-04 23:11:30] INFO:  Se está iterando el día 2020-04-29
[2023-08-04 23:12:56] INFO:  Se está iterando el día 2020-04-30
[2023-08-04 23:14:37] INFO:  Se borró con éxito 202004_RadarAMVA_HztlReflectivity
[2023-08-04 23:14:37] INFO:  Se comienza a trabajar con el mes 202005
[2023-08-04 23:18:48] INFO:  Se copió con éxito 202005_RadarAMVA_HztlReflectivity.rar con tamaño 1544175.0
[2023-08-04 23:20:07] INFO:  Se realizó el Unzip de 202005
[2023-08-04 23:20:07] INFO:  Se está iterando el día 2020-05-01
[2023-08-04 23:21:31] INFO:  Se está iterando el día 2020-05-02
[2023-08-04 23:22:43] INFO:  Se está iterando el día 2020-05-03
[2023-08-04 23:24:04] INFO:  Se está iterando el día 2020-05-04
[2023-08-04 23:25:25] INFO:  Se está iterando el día 2020-05-05
[2023-08-04 23:26:47] INFO:  Se está iterando el día 2020-05-06
[2023-08-04 23:28:11] INFO:  Se está iterando el día 2020-05-07
[2023-08-04 23:29:30] INFO:  Se está iterando el día 2020-05-08
[2023-08-04 23:30:43] INFO:  Se está iterando el día 2020-05-09
[2023-08-04 23:31:56] INFO:  Se está iterando el día 2020-05-10
[2023-08-04 23:33:08] INFO:  Se está iterando el día 2020-05-11
[2023-08-04 23:34:32] INFO:  Se está iterando el día 2020-05-12
[2023-08-04 23:35:55] INFO:  Se está iterando el día 2020-05-13
[2023-08-04 23:37:17] INFO:  Se está iterando el día 2020-05-14
[2023-08-04 23:38:30] INFO:  Se está iterando el día 2020-05-15
[2023-08-04 23:39:52] INFO:  Se está iterando el día 2020-05-16
[2023-08-04 23:41:14] INFO:  Se está iterando el día 2020-05-17
[2023-08-04 23:42:37] INFO:  Se está iterando el día 2020-05-18
[2023-08-04 23:44:05] INFO:  Se está iterando el día 2020-05-19
[2023-08-04 23:45:31] INFO:  Se está iterando el día 2020-05-20
[2023-08-04 23:46:40] INFO:  Se está iterando el día 2020-05-21
[2023-08-04 23:47:57] INFO:  Se está iterando el día 2020-05-22
[2023-08-04 23:49:11] INFO:  Se está iterando el día 2020-05-23
[2023-08-04 23:50:26] INFO:  Se está iterando el día 2020-05-24
[2023-08-04 23:51:42] INFO:  Se está iterando el día 2020-05-25
[2023-08-04 23:52:54] INFO:  Se está iterando el día 2020-05-26
[2023-08-04 23:54:08] INFO:  Se está iterando el día 2020-05-27
[2023-08-04 23:55:27] INFO:  Se está iterando el día 2020-05-28
[2023-08-04 23:56:47] INFO:  Se está iterando el día 2020-05-29
[2023-08-04 23:58:10] INFO:  Se está iterando el día 2020-05-30
[2023-08-04 23:59:40] INFO:  Se está iterando el día 2020-05-31
[2023-08-05 00:01:13] INFO:  Se borró con éxito 202005_RadarAMVA_HztlReflectivity
[2023-08-05 00:01:13] INFO:  Se comienza a trabajar con el mes 202006
[2023-08-05 00:17:17] INFO:  Se copió con éxito 202006_RadarAMVA_HztlReflectivity.rar con tamaño 1648830.739
[2023-08-05 00:18:39] INFO:  Se realizó el Unzip de 202006
[2023-08-05 00:18:39] INFO:  Se está iterando el día 2020-06-01
[2023-08-05 00:20:07] INFO:  Se está iterando el día 2020-06-02
[2023-08-05 00:21:23] INFO:  Se está iterando el día 2020-06-03
[2023-08-05 00:22:53] INFO:  Se está iterando el día 2020-06-04
[2023-08-05 00:24:08] INFO:  Se está iterando el día 2020-06-05
[2023-08-05 00:25:23] INFO:  Se está iterando el día 2020-06-06
[2023-08-05 00:26:45] INFO:  Se está iterando el día 2020-06-07
[2023-08-05 00:28:02] INFO:  Se está iterando el día 2020-06-08
[2023-08-05 00:29:18] INFO:  Se está iterando el día 2020-06-09
[2023-08-05 00:30:38] INFO:  Se está iterando el día 2020-06-10
[2023-08-05 00:32:06] INFO:  Se está iterando el día 2020-06-11
[2023-08-05 00:33:26] INFO:  Se está iterando el día 2020-06-12
[2023-08-05 00:34:54] INFO:  Se está iterando el día 2020-06-13
[2023-08-05 00:36:13] INFO:  Se está iterando el día 2020-06-14
[2023-08-05 00:37:33] INFO:  Se está iterando el día 2020-06-15
[2023-08-05 00:38:58] INFO:  Se está iterando el día 2020-06-16
[2023-08-05 00:40:12] INFO:  Se está iterando el día 2020-06-17
[2023-08-05 00:41:39] INFO:  Se está iterando el día 2020-06-18
[2023-08-05 00:42:54] INFO:  Se está iterando el día 2020-06-19
[2023-08-05 00:44:10] INFO:  Se está iterando el día 2020-06-20
[2023-08-05 00:45:33] INFO:  Se está iterando el día 2020-06-21
[2023-08-05 00:46:52] INFO:  Se está iterando el día 2020-06-22
[2023-08-05 00:48:14] INFO:  Se está iterando el día 2020-06-23
[2023-08-05 00:49:30] INFO:  Se está iterando el día 2020-06-24
[2023-08-05 00:50:44] INFO:  Se está iterando el día 2020-06-25
[2023-08-05 00:51:57] INFO:  Se está iterando el día 2020-06-26
[2023-08-05 00:53:21] INFO:  Se está iterando el día 2020-06-27
[2023-08-05 00:54:40] INFO:  Se está iterando el día 2020-06-28
[2023-08-05 00:56:08] INFO:  Se está iterando el día 2020-06-29
[2023-08-05 00:57:21] INFO:  Se está iterando el día 2020-06-30
[2023-08-05 00:58:50] INFO:  Se borró con éxito 202006_RadarAMVA_HztlReflectivity
[2023-08-05 00:58:50] INFO:  Se comienza a trabajar con el mes 202007
[2023-08-05 01:17:54] INFO:  Se copió con éxito 202007_RadarAMVA_HztlReflectivity.rar con tamaño 1970049.74
[2023-08-05 01:19:27] INFO:  Se realizó el Unzip de 202007
[2023-08-05 01:19:27] INFO:  Se está iterando el día 2020-07-01
[2023-08-05 01:20:54] INFO:  Se está iterando el día 2020-07-02
[2023-08-05 01:22:20] INFO:  Se está iterando el día 2020-07-03
[2023-08-05 01:23:39] INFO:  Se está iterando el día 2020-07-04
[2023-08-05 01:25:07] INFO:  Se está iterando el día 2020-07-05
[2023-08-05 01:26:36] INFO:  Se está iterando el día 2020-07-06
[2023-08-05 01:27:50] INFO:  Se está iterando el día 2020-07-07
[2023-08-05 01:29:12] INFO:  Se está iterando el día 2020-07-08
[2023-08-05 01:30:38] INFO:  Se está iterando el día 2020-07-09
[2023-08-05 01:32:01] INFO:  Se está iterando el día 2020-07-10
[2023-08-05 01:33:24] INFO:  Se está iterando el día 2020-07-11
[2023-08-05 01:34:46] INFO:  Se está iterando el día 2020-07-12
[2023-08-05 01:36:09] INFO:  Se está iterando el día 2020-07-13
[2023-08-05 01:37:32] INFO:  Se está iterando el día 2020-07-14
[2023-08-05 01:38:52] INFO:  Se está iterando el día 2020-07-15
[2023-08-05 01:40:06] INFO:  Se está iterando el día 2020-07-16
[2023-08-05 01:41:28] INFO:  Se está iterando el día 2020-07-17
[2023-08-05 01:42:41] INFO:  Se está iterando el día 2020-07-18
[2023-08-05 01:43:57] INFO:  Se está iterando el día 2020-07-19
[2023-08-05 01:45:14] INFO:  Se está iterando el día 2020-07-20
[2023-08-05 01:46:37] INFO:  Se está iterando el día 2020-07-21
[2023-08-05 01:48:00] INFO:  Se está iterando el día 2020-07-22
[2023-08-05 01:49:26] INFO:  Se está iterando el día 2020-07-23
[2023-08-05 01:50:58] INFO:  Se está iterando el día 2020-07-24
[2023-08-05 01:52:31] INFO:  Se está iterando el día 2020-07-25
[2023-08-05 01:53:55] INFO:  Se está iterando el día 2020-07-26
[2023-08-05 01:55:14] INFO:  Se está iterando el día 2020-07-27
[2023-08-05 01:56:39] INFO:  Se está iterando el día 2020-07-28
[2023-08-05 01:57:59] INFO:  Se está iterando el día 2020-07-29
[2023-08-05 01:59:17] INFO:  Se está iterando el día 2020-07-30
[2023-08-05 02:00:43] INFO:  Se está iterando el día 2020-07-31
[2023-08-05 02:02:11] INFO:  Se borró con éxito 202007_RadarAMVA_HztlReflectivity
[2023-08-05 02:02:11] INFO:  Se comienza a trabajar con el mes 202008
[2023-08-05 02:17:55] INFO:  Se copió con éxito 202008_RadarAMVA_HztlReflectivity.rar con tamaño 1500825.375
[2023-08-05 02:19:28] INFO:  Se realizó el Unzip de 202008
[2023-08-05 02:19:28] INFO:  Se está iterando el día 2020-08-01
[2023-08-05 02:20:50] INFO:  Se está iterando el día 2020-08-02
[2023-08-05 02:22:02] INFO:  Se está iterando el día 2020-08-03
[2023-08-05 02:23:21] INFO:  Se está iterando el día 2020-08-04
[2023-08-05 02:24:39] INFO:  Se está iterando el día 2020-08-05
[2023-08-05 02:25:58] INFO:  Se está iterando el día 2020-08-06
[2023-08-05 02:27:12] INFO:  Se está iterando el día 2020-08-07
[2023-08-05 02:28:29] INFO:  Se está iterando el día 2020-08-08
[2023-08-05 02:29:40] INFO:  Se está iterando el día 2020-08-09
[2023-08-05 02:30:52] INFO:  Se está iterando el día 2020-08-10
[2023-08-05 02:32:07] INFO:  Se está iterando el día 2020-08-11
[2023-08-05 02:33:22] INFO:  Se está iterando el día 2020-08-12
[2023-08-05 02:34:40] INFO:  Se está iterando el día 2020-08-13
[2023-08-05 02:36:03] INFO:  Se está iterando el día 2020-08-14
[2023-08-05 02:37:28] INFO:  Se está iterando el día 2020-08-15
[2023-08-05 02:38:47] INFO:  Se está iterando el día 2020-08-16
[2023-08-05 02:40:07] INFO:  Se está iterando el día 2020-08-17
[2023-08-05 02:41:35] INFO:  Se está iterando el día 2020-08-18
[2023-08-05 02:42:56] INFO:  Se está iterando el día 2020-08-19
[2023-08-05 02:44:24] INFO:  Se está iterando el día 2020-08-20
[2023-08-05 02:45:54] INFO:  Se está iterando el día 2020-08-21
[2023-08-05 02:47:19] INFO:  Se está iterando el día 2020-08-22
[2023-08-05 02:48:49] INFO:  Se está iterando el día 2020-08-23
[2023-08-05 02:50:15] INFO:  Se está iterando el día 2020-08-24
[2023-08-05 02:51:40] INFO:  Se está iterando el día 2020-08-25
[2023-08-05 02:53:07] INFO:  Se está iterando el día 2020-08-26
[2023-08-05 02:54:26] INFO:  Se está iterando el día 2020-08-27
[2023-08-05 02:55:49] INFO:  Se está iterando el día 2020-08-28
[2023-08-05 02:57:08] INFO:  Se está iterando el día 2020-08-29
[2023-08-05 02:58:18] INFO:  Se está iterando el día 2020-08-30
[2023-08-05 02:58:27] INFO:  Se está iterando el día 2020-08-31
[2023-08-05 02:59:50] INFO:  Se borró con éxito 202008_RadarAMVA_HztlReflectivity
[2023-08-05 02:59:50] INFO:  Se comienza a trabajar con el mes 202009
[2023-08-05 03:02:13] INFO:  Se copió con éxito 202009_RadarAMVA_HztlReflectivity.rar con tamaño 1475832.868
[2023-08-05 03:03:33] INFO:  Se realizó el Unzip de 202009
[2023-08-05 03:03:33] INFO:  Se está iterando el día 2020-09-01
[2023-08-05 03:04:49] INFO:  Se está iterando el día 2020-09-02
[2023-08-05 03:05:44] INFO:  Se está iterando el día 2020-09-03
[2023-08-05 03:06:45] INFO:  Se está iterando el día 2020-09-04
[2023-08-05 03:08:04] INFO:  Se está iterando el día 2020-09-05
[2023-08-05 03:09:25] INFO:  Se está iterando el día 2020-09-06
[2023-08-05 03:10:49] INFO:  Se está iterando el día 2020-09-07
[2023-08-05 03:12:12] INFO:  Se está iterando el día 2020-09-08
[2023-08-05 03:13:46] INFO:  Se está iterando el día 2020-09-09
[2023-08-05 03:15:06] INFO:  Se está iterando el día 2020-09-10
[2023-08-05 03:16:27] INFO:  Se está iterando el día 2020-09-11
[2023-08-05 03:17:49] INFO:  Se está iterando el día 2020-09-12
[2023-08-05 03:19:15] INFO:  Se está iterando el día 2020-09-13
[2023-08-05 03:20:35] INFO:  Se está iterando el día 2020-09-14
[2023-08-05 03:21:53] INFO:  Se está iterando el día 2020-09-15
[2023-08-05 03:23:13] INFO:  Se está iterando el día 2020-09-16
[2023-08-05 03:24:40] INFO:  Se está iterando el día 2020-09-17
[2023-08-05 03:25:58] INFO:  Se está iterando el día 2020-09-18
[2023-08-05 03:27:18] INFO:  Se está iterando el día 2020-09-19
[2023-08-05 03:28:43] INFO:  Se está iterando el día 2020-09-20
[2023-08-05 03:30:09] INFO:  Se está iterando el día 2020-09-21
[2023-08-05 03:31:33] INFO:  Se está iterando el día 2020-09-22
[2023-08-05 03:32:57] INFO:  Se está iterando el día 2020-09-23
[2023-08-05 03:34:17] INFO:  Se está iterando el día 2020-09-24
[2023-08-05 03:35:40] INFO:  Se está iterando el día 2020-09-25
[2023-08-05 03:36:56] INFO:  Se está iterando el día 2020-09-26
[2023-08-05 03:38:23] INFO:  Se está iterando el día 2020-09-27
[2023-08-05 03:39:49] INFO:  Se está iterando el día 2020-09-28
[2023-08-05 03:41:05] INFO:  Se está iterando el día 2020-09-29
[2023-08-05 03:42:26] INFO:  Se está iterando el día 2020-09-30
[2023-08-05 03:44:07] INFO:  Se borró con éxito 202009_RadarAMVA_HztlReflectivity
[2023-08-05 03:44:07] INFO:  Se comienza a trabajar con el mes 202010
[2023-08-05 03:47:52] INFO:  Se copió con éxito 202010_RadarAMVA_HztlReflectivity.rar con tamaño 1609002.219
[2023-08-05 03:49:17] INFO:  Se realizó el Unzip de 202010
[2023-08-05 03:49:17] INFO:  Se está iterando el día 2020-10-01
[2023-08-05 03:50:39] INFO:  Se está iterando el día 2020-10-02
[2023-08-05 03:52:04] INFO:  Se está iterando el día 2020-10-03
[2023-08-05 03:53:32] INFO:  Se está iterando el día 2020-10-04
[2023-08-05 03:55:00] INFO:  Se está iterando el día 2020-10-05
[2023-08-05 03:56:24] INFO:  Se está iterando el día 2020-10-06
[2023-08-05 03:57:47] INFO:  Se está iterando el día 2020-10-07
[2023-08-05 03:58:38] INFO:  Se está iterando el día 2020-10-08
[2023-08-05 03:59:59] INFO:  Se está iterando el día 2020-10-09
[2023-08-05 04:01:19] INFO:  Se está iterando el día 2020-10-10
[2023-08-05 04:02:35] INFO:  Se está iterando el día 2020-10-11
[2023-08-05 04:03:58] INFO:  Se está iterando el día 2020-10-12
[2023-08-05 04:05:30] INFO:  Se está iterando el día 2020-10-13
[2023-08-05 04:06:57] INFO:  Se está iterando el día 2020-10-14
[2023-08-05 04:08:22] INFO:  Se está iterando el día 2020-10-15
[2023-08-05 04:09:45] INFO:  Se está iterando el día 2020-10-16
[2023-08-05 04:11:05] INFO:  Se está iterando el día 2020-10-17
[2023-08-05 04:12:22] INFO:  Se está iterando el día 2020-10-18
[2023-08-05 04:13:43] INFO:  Se está iterando el día 2020-10-19
[2023-08-05 04:15:17] INFO:  Se está iterando el día 2020-10-20
[2023-08-05 04:16:37] INFO:  Se está iterando el día 2020-10-21
[2023-08-05 04:18:02] INFO:  Se está iterando el día 2020-10-22
[2023-08-05 04:19:27] INFO:  Se está iterando el día 2020-10-23
[2023-08-05 04:20:49] INFO:  Se está iterando el día 2020-10-24
[2023-08-05 04:22:16] INFO:  Se está iterando el día 2020-10-25
[2023-08-05 04:23:39] INFO:  Se está iterando el día 2020-10-26
[2023-08-05 04:25:06] INFO:  Se está iterando el día 2020-10-27
[2023-08-05 04:26:27] INFO:  Se está iterando el día 2020-10-28
[2023-08-05 04:27:47] INFO:  Se está iterando el día 2020-10-29
[2023-08-05 04:29:10] INFO:  Se está iterando el día 2020-10-30
[2023-08-05 04:30:36] INFO:  Se está iterando el día 2020-10-31
[2023-08-05 04:32:18] INFO:  Se borró con éxito 202010_RadarAMVA_HztlReflectivity
[2023-08-05 04:32:18] INFO:  Se comienza a trabajar con el mes 202011
[2023-08-05 04:49:20] INFO:  Se copió con éxito 202011_RadarAMVA_HztlReflectivity.rar con tamaño 1714749.073
[2023-08-05 04:50:42] INFO:  Se realizó el Unzip de 202011
[2023-08-05 04:50:42] INFO:  Se está iterando el día 2020-11-01
[2023-08-05 04:52:17] INFO:  Se está iterando el día 2020-11-02
[2023-08-05 04:53:34] INFO:  Se está iterando el día 2020-11-03
[2023-08-05 04:54:54] INFO:  Se está iterando el día 2020-11-04
[2023-08-05 04:56:17] INFO:  Se está iterando el día 2020-11-05
[2023-08-05 04:57:41] INFO:  Se está iterando el día 2020-11-06
[2023-08-05 04:59:05] INFO:  Se está iterando el día 2020-11-07
[2023-08-05 05:00:24] INFO:  Se está iterando el día 2020-11-08
[2023-08-05 05:01:46] INFO:  Se está iterando el día 2020-11-09
[2023-08-05 05:03:13] INFO:  Se está iterando el día 2020-11-10
[2023-08-05 05:04:39] INFO:  Se está iterando el día 2020-11-11
[2023-08-05 05:06:15] INFO:  Se está iterando el día 2020-11-12
[2023-08-05 05:07:39] INFO:  Se está iterando el día 2020-11-13
[2023-08-05 05:09:10] INFO:  Se está iterando el día 2020-11-14
[2023-08-05 05:10:38] INFO:  Se está iterando el día 2020-11-15
[2023-08-05 05:11:57] INFO:  Se está iterando el día 2020-11-16
[2023-08-05 05:13:22] INFO:  Se está iterando el día 2020-11-17
[2023-08-05 05:14:48] INFO:  Se está iterando el día 2020-11-18
[2023-08-05 05:16:13] INFO:  Se está iterando el día 2020-11-19
[2023-08-05 05:17:37] INFO:  Se está iterando el día 2020-11-20
[2023-08-05 05:19:02] INFO:  Se está iterando el día 2020-11-21
[2023-08-05 05:20:32] INFO:  Se está iterando el día 2020-11-22
[2023-08-05 05:21:52] INFO:  Se está iterando el día 2020-11-23
[2023-08-05 05:23:10] INFO:  Se está iterando el día 2020-11-24
[2023-08-05 05:24:31] INFO:  Se está iterando el día 2020-11-25
[2023-08-05 05:25:55] INFO:  Se está iterando el día 2020-11-26
[2023-08-05 05:27:18] INFO:  Se está iterando el día 2020-11-27
[2023-08-05 05:28:43] INFO:  Se está iterando el día 2020-11-28
[2023-08-05 05:30:12] INFO:  Se está iterando el día 2020-11-29
[2023-08-05 05:31:33] INFO:  Se está iterando el día 2020-11-30
[2023-08-05 05:33:07] INFO:  Se borró con éxito 202011_RadarAMVA_HztlReflectivity
[2023-08-05 05:33:07] INFO:  Se comienza a trabajar con el mes 202012
[2023-08-05 05:36:32] INFO:  Se copió con éxito 202012_RadarAMVA_HztlReflectivity.rar con tamaño 967830.46
[2023-08-05 05:37:53] INFO:  Se realizó el Unzip de 202012
[2023-08-05 05:37:53] INFO:  Se está iterando el día 2020-12-01
[2023-08-05 05:39:22] INFO:  Se está iterando el día 2020-12-02
[2023-08-05 05:40:44] INFO:  Se está iterando el día 2020-12-03
[2023-08-05 05:42:07] INFO:  Se está iterando el día 2020-12-04
[2023-08-05 05:43:27] INFO:  Se está iterando el día 2020-12-05
[2023-08-05 05:44:41] INFO:  Se está iterando el día 2020-12-06
[2023-08-05 05:46:01] INFO:  Se está iterando el día 2020-12-07
[2023-08-05 05:47:20] INFO:  Se está iterando el día 2020-12-08
[2023-08-05 05:48:38] INFO:  Se está iterando el día 2020-12-09
[2023-08-05 05:50:04] INFO:  Se está iterando el día 2020-12-10
[2023-08-05 05:51:18] INFO:  Se está iterando el día 2020-12-11
[2023-08-05 05:52:23] INFO:  Se está iterando el día 2020-12-12
[2023-08-05 05:53:39] INFO:  Se está iterando el día 2020-12-13
[2023-08-05 05:54:54] INFO:  Se está iterando el día 2020-12-14
[2023-08-05 05:56:06] INFO:  Se está iterando el día 2020-12-15
[2023-08-05 05:57:30] INFO:  Se está iterando el día 2020-12-16
[2023-08-05 05:58:49] INFO:  Se está iterando el día 2020-12-17
[2023-08-05 06:00:05] INFO:  Se está iterando el día 2020-12-18
[2023-08-05 06:01:29] INFO:  Se está iterando el día 2020-12-19
[2023-08-05 06:02:48] INFO:  Se está iterando el día 2020-12-20
[2023-08-05 06:04:16] INFO:  Se está iterando el día 2020-12-21
[2023-08-05 06:05:35] INFO:  Se está iterando el día 2020-12-22
[2023-08-05 06:06:44] INFO:  Se está iterando el día 2020-12-23
[2023-08-05 06:08:01] INFO:  Se está iterando el día 2020-12-24
[2023-08-05 06:09:24] INFO:  Se está iterando el día 2020-12-25
[2023-08-05 06:10:52] INFO:  Se está iterando el día 2020-12-26
[2023-08-05 06:12:19] INFO:  Se está iterando el día 2020-12-27
[2023-08-05 06:13:41] INFO:  Se está iterando el día 2020-12-28
[2023-08-05 06:14:59] INFO:  Se está iterando el día 2020-12-29
[2023-08-05 06:16:17] INFO:  Se está iterando el día 2020-12-30
[2023-08-05 06:17:39] INFO:  Se está iterando el día 2020-12-31
[2023-08-05 06:19:07] INFO:  Se borró con éxito 202012_RadarAMVA_HztlReflectivity
